<?xml version="1.0" encoding="UTF-8"?>
<robot generated="20200612 17:41:26.119" generator="Robot 2.9 (Python 2.7.16 on darwin)">
<suite source="/Users/bond/Documents/Paylo/Regression_Test/Scenario#1.robot" id="s1" name="Scenario#1">
<test id="s1-t1" name="TC06 : Delete merchant.">
<kw name="Delete merchant by ID" library="Keyword_api_backoffice">
<arguments>
<arg>200</arg>
</arguments>
<kw name="Create Session" library="RequestsLibrary">
<doc>Create Session: create a HTTP session to a server</doc>
<arguments>
<arg>admin_login</arg>
<arg>${api-staging}</arg>
<arg>disable_warnings=0</arg>
</arguments>
<msg timestamp="20200612 17:41:27.939" level="INFO">Creating Session using : alias=admin_login, url=https://staging-api-manage.pay-lo.com, headers={},                     cookies={}, auth=None, timeout=None, proxies=None, verify=False,                     debug=0 </msg>
<status status="PASS" endtime="20200612 17:41:27.940" starttime="20200612 17:41:27.939"></status>
</kw>
<kw name="Create Dictionary" library="BuiltIn">
<doc>Creates and returns a dictionary based on given items.</doc>
<arguments>
<arg>Content-Type=application/json</arg>
<arg>charset=utf-8</arg>
</arguments>
<assign>
<var>&amp;{headers}</var>
</assign>
<msg timestamp="20200612 17:41:27.941" level="INFO">&amp;{headers} = { Content-Type=application/json | charset=utf-8 }</msg>
<status status="PASS" endtime="20200612 17:41:27.941" starttime="20200612 17:41:27.940"></status>
</kw>
<kw name="Create Dictionary" library="BuiltIn">
<doc>Creates and returns a dictionary based on given items.</doc>
<arguments>
<arg>email=paylobackoffice@gmail.com</arg>
<arg>password=20Scoops#</arg>
</arguments>
<assign>
<var>&amp;{data}</var>
</assign>
<msg timestamp="20200612 17:41:27.942" level="INFO">&amp;{data} = { email=paylobackoffice@gmail.com | password=20Scoops# }</msg>
<status status="PASS" endtime="20200612 17:41:27.943" starttime="20200612 17:41:27.942"></status>
</kw>
<kw name="Post Request" library="RequestsLibrary">
<doc>Send a POST request on the session object found using the</doc>
<arguments>
<arg>admin_login</arg>
<arg>${api-admin-login}</arg>
<arg>data=${data}</arg>
<arg>headers=${headers}</arg>
</arguments>
<assign>
<var>${resp}</var>
</assign>
<msg timestamp="20200612 17:41:28.600" level="INFO">POST Request : url=https://staging-api-manage.pay-lo.com/admin/login 
 path_url=/admin/login 
 headers={'Content-Length': '63', 'Accept-Encoding': 'gzip, deflate', 'charset': u'utf-8', 'Accept': '*/*', 'User-Agent': 'python-requests/2.23.0', 'Connection': 'keep-alive', 'Content-Type': u'application/json'} 
 body={"email": "paylobackoffice@gmail.com", "password": "20Scoops#"} 
 </msg>
<msg timestamp="20200612 17:41:28.600" level="INFO">POST Response : url=https://staging-api-manage.pay-lo.com/admin/login 
 status=200, reason=OK 
 body={"token":"eyJhbGciOiJIUzI1NiIsInR5cCI6IkpXVCJ9.eyJzdWIiOiI1ZTE4MjRmMDhmYjRmNDAwOGFhZjIzNjUiLCJyb2xlIjoiYWRtaW4iLCJleHAiOjE1OTI1NjMyOTAsImlhdCI6MTU5MTk1ODQ5MH0.gOPaQKGlDyp01NHyk2MNu9ksJJ219pwBqiAHlBi5dqY"} 
 </msg>
<msg timestamp="20200612 17:41:28.600" level="INFO">${resp} = &lt;Response [200]&gt;</msg>
<status status="PASS" endtime="20200612 17:41:28.600" starttime="20200612 17:41:27.943"></status>
</kw>
<kw name="Get Json Value" library="HttpLibrary.HTTP">
<doc>Get the target node of the JSON document `json_string` specified by `json_pointer`.</doc>
<arguments>
<arg>${resp.text}</arg>
<arg>/token</arg>
</arguments>
<assign>
<var>${token}</var>
</assign>
<msg timestamp="20200612 17:41:28.601" level="INFO">${token} = "eyJhbGciOiJIUzI1NiIsInR5cCI6IkpXVCJ9.eyJzdWIiOiI1ZTE4MjRmMDhmYjRmNDAwOGFhZjIzNjUiLCJyb2xlIjoiYWRtaW4iLCJleHAiOjE1OTI1NjMyOTAsImlhdCI6MTU5MTk1ODQ5MH0.gOPaQKGlDyp01NHyk2MNu9ksJJ219pwBqiAHlBi5dqY"</msg>
<status status="PASS" endtime="20200612 17:41:28.601" starttime="20200612 17:41:28.601"></status>
</kw>
<kw name="Remove String Using Regexp" library="String">
<doc>Removes ``patterns`` from the given ``string``.</doc>
<arguments>
<arg>${token}</arg>
<arg>"</arg>
</arguments>
<assign>
<var>${token}</var>
</assign>
<msg timestamp="20200612 17:41:28.602" level="INFO">${token} = eyJhbGciOiJIUzI1NiIsInR5cCI6IkpXVCJ9.eyJzdWIiOiI1ZTE4MjRmMDhmYjRmNDAwOGFhZjIzNjUiLCJyb2xlIjoiYWRtaW4iLCJleHAiOjE1OTI1NjMyOTAsImlhdCI6MTU5MTk1ODQ5MH0.gOPaQKGlDyp01NHyk2MNu9ksJJ219pwBqiAHlBi5dqY</msg>
<status status="PASS" endtime="20200612 17:41:28.602" starttime="20200612 17:41:28.602"></status>
</kw>
<kw name="Create Session" library="RequestsLibrary">
<doc>Create Session: create a HTTP session to a server</doc>
<arguments>
<arg>get merchant</arg>
<arg>${api-staging}</arg>
<arg>disable_warnings=0</arg>
</arguments>
<msg timestamp="20200612 17:41:28.603" level="INFO">Creating Session using : alias=get merchant, url=https://staging-api-manage.pay-lo.com, headers={},                     cookies={}, auth=None, timeout=None, proxies=None, verify=False,                     debug=0 </msg>
<status status="PASS" endtime="20200612 17:41:28.603" starttime="20200612 17:41:28.602"></status>
</kw>
<kw name="Create Dictionary" library="BuiltIn">
<doc>Creates and returns a dictionary based on given items.</doc>
<arguments>
<arg>Content-Type=application/json</arg>
<arg>Authorization=${token}</arg>
<arg>page=1</arg>
<arg>perpage=1</arg>
<arg>status=1</arg>
</arguments>
<assign>
<var>&amp;{headers}</var>
</assign>
<msg timestamp="20200612 17:41:28.604" level="INFO">&amp;{headers} = { Content-Type=application/json | Authorization=eyJhbGciOiJIUzI1NiIsInR5cCI6IkpXVCJ9.eyJzdWIiOiI1ZTE4MjRmMDhmYjRmNDAwOGFhZjIzNjUiLCJyb2xlIjoiYWRtaW4iLCJleHAiOjE1OTI1NjMyOTAsImlhdCI6MTU5MTk1ODQ5MH0.gOP...</msg>
<status status="PASS" endtime="20200612 17:41:28.604" starttime="20200612 17:41:28.603"></status>
</kw>
<kw name="Get Request" library="RequestsLibrary">
<doc>Send a GET request on the session object found using the</doc>
<arguments>
<arg>get merchant</arg>
<arg>${api-get-merchant}</arg>
<arg>headers=${headers}</arg>
</arguments>
<assign>
<var>${resp}</var>
</assign>
<msg timestamp="20200612 17:41:29.083" level="INFO">GET Request : url=https://staging-api-manage.pay-lo.com/admin/merchants 
 path_url=/admin/merchants 
 headers={'status': u'1', 'perpage': u'1', 'Accept-Encoding': 'gzip, deflate', 'Accept': '*/*', 'User-Agent': 'python-requests/2.23.0', 'Connection': 'keep-alive', 'Content-Type': u'application/json', 'page': u'1', 'Authorization': u'eyJhbGciOiJIUzI1NiIsInR5cCI6IkpXVCJ9.eyJzdWIiOiI1ZTE4MjRmMDhmYjRmNDAwOGFhZjIzNjUiLCJyb2xlIjoiYWRtaW4iLCJleHAiOjE1OTI1NjMyOTAsImlhdCI6MTU5MTk1ODQ5MH0.gOPaQKGlDyp01NHyk2MNu9ksJJ219pwBqiAHlBi5dqY'} 
 body=None 
 </msg>
<msg timestamp="20200612 17:41:29.083" level="INFO">GET Response : url=https://staging-api-manage.pay-lo.com/admin/merchants 
 status=200, reason=OK 
 body={"data":[{"id":"5ee303e9bb317c001c247fc6","name":"Tom","company_name":"Dream High","email":"np@gmail.com","phone":"123456789","address":"MARS","business_type":"Capsules Hotel","contact_email":"nathakrit.p@gmail.com","status_activity":{"status":"approved","date":1591936011158},"status":"approved","balance":0,"currency":"EUR","bank_account":"DE91 1000 0000 0123 4567 89","vat_number":"TT 223232342424","created_at":1591935977241,"total_activity":0},{"id":"5ed10e268d2417001bacde7d","name":"Marius","company_name":"Test Marius","email":"mail@20scoops.com","phone":"123456789","address":"mm@20scoops.com","business_type":"FUN","contact_email":"mm@20it.de","status_activity":{"status":"approved","date":1591286829490},"status":"approved","balance":0,"created_at":1590758950485,"total_activity":0},{"id":"5ed0a8c48d2417001bacde6c","name":"Jakcie3","company_name":"Mii","email":"sniperaek+00@gmail.com","phone":"800-228-9290 ","address":"Mueang Chiang Mai District, Chiang Mai","business_type":"Room Service","product_type":"Kitchen staff","contact_email":"sniperaek+00@gmail.com","status_activity":{"status":"approved","date":1590733027987},"status":"approved","balance":0,"currency":"EUR","bank_account":"GB33 BUKB 2020 1555 5555 55","vat_number":"DE123456789","created_at":1590732996304,"total_activity":0},{"id":"5ecf80c3e8777f001b0e70c2","name":"Sat","company_name":"1111","email":"nathakrit.p@gmail.com","phone":"0998887777","address":"Mars","business_type":"Hotel","product_type":"Room","contact_email":"nathakrit.p@gmail.com","status_activity":{"status":"approved","date":1590657266579},"status":"approved","balance":845,"currency":"EUR","bank_account":"DE91 1000 0000 0123 4567 89","vat_number":"DE 123456789","created_at":1590657219449,"total_activity":19},{"id":"5ecce07ae8777f001b0e70a6","name":"Willem111","company_name":"Stoltenberg Group","email":"sniperaek+7@gmail.com","phone":"1231231231","address":"Mueang Chiang Mai District, Chiang Mai","business_type":"Room Service","product_type":"Premium","contact_email":"sniperaek+7@gmail.com","status_activity":{"status":"approved","date":1590485181412},"status":"approved","balance":0,"currency":"EUR","bank_account":"DE75 5121 0800 1245 1261 99","vat_number":"DE123456789","created_at":1590485114265,"total_activity":0},{"id":"5ecbe493e8777f001b0e7093","name":"Maron1","company_name":"Ondricka, Macejkovic and Collier","email":"sniperaek+6@gmail.com","phone":"59-1429060","address":"Matrix Next-Generation Channels\t","business_type":"Hotel","product_type":"Premium","contact_email":"sniperaek+6@gmail.com","status_activity":{"status":"approved","date":1590485031089},"status":"approved","balance":0,"currency":"EUR","bank_account":"DE75 5121 0800 1245 1261 99","vat_number":"dsfsdxzfds","created_at":1590420627382,"total_activity":0},{"id":"5ecbe2d1e8777f001b0e7090","name":"Echo","company_name":"Pfannerstill, Bernhard and Carter\t","email":"sniperaek+5@gmail.com","phone":"954488122","address":"Front-Line Mobile Circuit\t","business_type":"Car","product_type":"BMW","contact_email":"sniperaek+5@gmail.com","status_activity":{"status":"approved","date":1590420467677},"status":"approved","balance":0,"created_at":1590420177645,"total_activity":0},{"id":"5ecbe0e0e8777f001b0e708b","name":"Jims","company_name":"Olson, Yundt and Ankunding\t","email":"sniperaek+4@gmail.com","phone":"83-1489512","address":"Front-Line Mobile Circuit\t","business_type":"Hotel","product_type":"","contact_email":"sniperaek+2@gmail.com","status_activity":{"status":"approved","date":1590419747189},"status":"approved","balance":0,"currency":"EUR","bank_account":"GB33 BUKB 2020 1555 5555 55","vat_number":"111","created_at":1590419680069,"total_activity":0},{"id":"5e95ad15821b80001b13be0f","company_name":"Hotel Sea View","email":"billing@hotel-sea-view.com","phone":"001-000-123456789","address":"12344, Ocean Drive, Pasadena, 99123, CA","business_type":"Hotel","product_type":"Boutique","contact_email":"menzelmichael@t-online.de","status_activity":{"status":"approved","date":1586867500428},"status":"approved","balance":0,"created_at":1586867477285,"total_activity":0},{"id":"5e95a4f3821b80001b13be0c","company_name":"Hotel Sea View","email":"billing@hotel-sea-hotel.com","phone":"001-000-123456789","address":"12344, Ocean Drive, Pasadena, 99123, CA","business_type":"Hotel","product_type":"Boutique","contact_email":"menzelmichael@t-online.de","status_activity":{"status":"approved","date":1586865713547},"status":"approved","balance":0,"created_at":1586865395092,"total_activity":0},{"id":"5e95946b821b80001b13be0a","company_name":"Skynet","email":"david.s@20scoops.net","phone":"0947106780","address":"Mars, Cyber District","business_type":"Robotics","product_type":"Terminator","contact_email":"david.s@20scoops.net","status_activity":{"status":"approved","date":1586861237308},"status":"approved","balance":0,"created_at":1586861163938,"total_activity":0},{"id":"5e955db4821b80001b13be04","name":"O'Reilly","company_name":"O'Reilly","email":"sniperaek+103@gmail.com","phone":"800-228-9290","address":"Mueang Chiang Mai District, Chiang Mai","business_type":"Room Service","product_type":"Kitchen staffw","contact_email":"muenchen.marriott@marriotthotels.com","status_activity":{"status":"approved","date":1586847182907},"status":"approved","balance":0,"created_at":1586847156372,"total_activity":0},{"id":"5e952591821b80001b13bdf5","name":"Quitzon Inc1","company_name":"Quitzon Inc1","email":"sniperaek+101@gmail.com","phone":"47-9286747","address":"Mueang Chiang Mai District, Chiang Mai","business_type":"Hotel","product_type":"Premium","contact_email":"sniperaek+101@gmail.com","status_activity":{"status":"approved","date":1586832847544},"status":"approved","balance":0,"created_at":1586832785890,"total_activity":0},{"id":"5e9524bd821b80001b13bdf4","company_name":"Trantow-Predovic","email":"sniperaek+100@gmail.com","phone":"90-7096454","address":"Mueang Chiang Mai District, Chiang Mai","business_type":"Hotel","product_type":"Kitchen staff","contact_email":"sniperaek+100@gmail.com","status_activity":{"status":"rejected","date":1586832693921},"status":"rejected","balance":0,"created_at":1586832573637,"total_activity":0},{"id":"5e8c9b4bd81977001b1634d5","name":"Hotel One","company_name":"Hotel One","email":"menzelmichael0107@gmail.com","phone":"+491736078484","address":"Mauststrasse 1, 88990 Hierstadt","business_type":"Hotel","product_type":"","contact_email":"menzelmichael0107@gmail.com","status_activity":{"status":"approved","date":1586334913184},"status":"approved","balance":0,"created_at":1586273099208,"total_activity":0}],"pagination":{"total":45,"total_pages":3,"current_page":1,"perpage":15}} 
 </msg>
<msg timestamp="20200612 17:41:29.083" level="INFO">${resp} = &lt;Response [200]&gt;</msg>
<status status="PASS" endtime="20200612 17:41:29.083" starttime="20200612 17:41:28.604"></status>
</kw>
<kw name="Get Json Value" library="HttpLibrary.HTTP">
<doc>Get the target node of the JSON document `json_string` specified by `json_pointer`.</doc>
<arguments>
<arg>${resp.text}</arg>
<arg>/data/0/id</arg>
</arguments>
<assign>
<var>${merchant_id}</var>
</assign>
<msg timestamp="20200612 17:41:29.085" level="INFO">${merchant_id} = "5ee303e9bb317c001c247fc6"</msg>
<status status="PASS" endtime="20200612 17:41:29.085" starttime="20200612 17:41:29.084"></status>
</kw>
<kw name="Remove String Using Regexp" library="String">
<doc>Removes ``patterns`` from the given ``string``.</doc>
<arguments>
<arg>${merchant_id}</arg>
<arg>"</arg>
</arguments>
<assign>
<var>${merchant_id}</var>
</assign>
<msg timestamp="20200612 17:41:29.085" level="INFO">${merchant_id} = 5ee303e9bb317c001c247fc6</msg>
<status status="PASS" endtime="20200612 17:41:29.085" starttime="20200612 17:41:29.085"></status>
</kw>
<kw name="Create Session" library="RequestsLibrary">
<doc>Create Session: create a HTTP session to a server</doc>
<arguments>
<arg>delete</arg>
<arg>${api-staging}</arg>
<arg>disable_warnings=0</arg>
</arguments>
<msg timestamp="20200612 17:41:29.086" level="INFO">Creating Session using : alias=delete, url=https://staging-api-manage.pay-lo.com, headers={},                     cookies={}, auth=None, timeout=None, proxies=None, verify=False,                     debug=0 </msg>
<status status="PASS" endtime="20200612 17:41:29.086" starttime="20200612 17:41:29.085"></status>
</kw>
<kw name="Create Dictionary" library="BuiltIn">
<doc>Creates and returns a dictionary based on given items.</doc>
<arguments>
<arg>Content-Type=application/json</arg>
<arg>Authorization=${token}</arg>
<arg>id=${merchant_id}</arg>
</arguments>
<assign>
<var>&amp;{headers}</var>
</assign>
<msg timestamp="20200612 17:41:29.087" level="INFO">&amp;{headers} = { Content-Type=application/json | Authorization=eyJhbGciOiJIUzI1NiIsInR5cCI6IkpXVCJ9.eyJzdWIiOiI1ZTE4MjRmMDhmYjRmNDAwOGFhZjIzNjUiLCJyb2xlIjoiYWRtaW4iLCJleHAiOjE1OTI1NjMyOTAsImlhdCI6MTU5MTk1ODQ5MH0.gOP...</msg>
<status status="PASS" endtime="20200612 17:41:29.087" starttime="20200612 17:41:29.086"></status>
</kw>
<kw name="Delete Request" library="RequestsLibrary">
<doc>Send a DELETE request on the session object found using the</doc>
<arguments>
<arg>delete</arg>
<arg>/admin/merchants/${merchant_id}</arg>
<arg>headers=${headers}</arg>
</arguments>
<assign>
<var>${resp}</var>
</assign>
<msg timestamp="20200612 17:41:29.372" level="INFO">DELETE Request : url=https://staging-api-manage.pay-lo.com/admin/merchants/5ee303e9bb317c001c247fc6 
 path_url=/admin/merchants/5ee303e9bb317c001c247fc6 
 headers={'Content-Length': '0', 'Accept-Encoding': 'gzip, deflate', 'Accept': '*/*', 'User-Agent': 'python-requests/2.23.0', 'Connection': 'keep-alive', 'Content-Type': u'application/json', 'id': u'5ee303e9bb317c001c247fc6', 'Authorization': u'eyJhbGciOiJIUzI1NiIsInR5cCI6IkpXVCJ9.eyJzdWIiOiI1ZTE4MjRmMDhmYjRmNDAwOGFhZjIzNjUiLCJyb2xlIjoiYWRtaW4iLCJleHAiOjE1OTI1NjMyOTAsImlhdCI6MTU5MTk1ODQ5MH0.gOPaQKGlDyp01NHyk2MNu9ksJJ219pwBqiAHlBi5dqY'} 
 body=None 
 </msg>
<msg timestamp="20200612 17:41:29.373" level="INFO">DELETE Response : url=https://staging-api-manage.pay-lo.com/admin/merchants/5ee303e9bb317c001c247fc6 
 status=200, reason=OK 
 body={"message":"success deleted ."} 
 </msg>
<msg timestamp="20200612 17:41:29.373" level="INFO">${resp} = &lt;Response [200]&gt;</msg>
<status status="PASS" endtime="20200612 17:41:29.373" starttime="20200612 17:41:29.087"></status>
</kw>
<kw name="Should Be Equal As Strings" library="BuiltIn">
<doc>Fails if objects are unequal after converting them to strings.</doc>
<arguments>
<arg>${resp.status_code}</arg>
<arg>${status}</arg>
</arguments>
<status status="PASS" endtime="20200612 17:41:29.374" starttime="20200612 17:41:29.373"></status>
</kw>
<status status="PASS" endtime="20200612 17:41:29.374" starttime="20200612 17:41:27.938"></status>
</kw>
<status status="PASS" endtime="20200612 17:41:29.374" critical="yes" starttime="20200612 17:41:27.938"></status>
</test>
<status status="PASS" endtime="20200612 17:41:29.374" starttime="20200612 17:41:26.121"></status>
</suite>
<statistics>
<total>
<stat fail="0" pass="1">Critical Tests</stat>
<stat fail="0" pass="1">All Tests</stat>
</total>
<tag>
</tag>
<suite>
<stat fail="0" id="s1" name="Scenario#1" pass="1">Scenario#1</stat>
</suite>
</statistics>
<errors>
<msg timestamp="20200612 17:41:26.261" level="ERROR">Error in file '/Users/bond/Documents/Paylo/common.robot': Importing test library 'SeleniumLibrary' failed: ImportError: cannot import name PY3
Traceback (most recent call last):
  File "/Users/bond/Library/Python/2.7/lib/python/site-packages/SeleniumLibrary/__init__.py", line 26, in &lt;module&gt;
    from SeleniumLibrary.base import DynamicCore, LibraryComponent
  File "/Users/bond/Library/Python/2.7/lib/python/site-packages/SeleniumLibrary/base/__init__.py", line 17, in &lt;module&gt;
    from .context import ContextAware
  File "/Users/bond/Library/Python/2.7/lib/python/site-packages/SeleniumLibrary/base/context.py", line 17, in &lt;module&gt;
    from SeleniumLibrary.utils import escape_xpath_value
  File "/Users/bond/Library/Python/2.7/lib/python/site-packages/SeleniumLibrary/utils/__init__.py", line 20, in &lt;module&gt;
    from .types import is_falsy, is_noney, is_string, is_truthy, PY3, WINDOWS
  File "/Users/bond/Library/Python/2.7/lib/python/site-packages/SeleniumLibrary/utils/types.py", line 19, in &lt;module&gt;
    from robot.utils import PY3, is_truthy, is_falsy
PYTHONPATH:
  /System/Library/Frameworks/Python.framework/Versions/2.7/lib/python27.zip
  /System/Library/Frameworks/Python.framework/Versions/2.7/lib/python2.7
  /System/Library/Frameworks/Python.framework/Versions/2.7/lib/python2.7/plat-darwin
  /System/Library/Frameworks/Python.framework/Versions/2.7/lib/python2.7/plat-mac
  /System/Library/Frameworks/Python.framework/Versions/2.7/lib/python2.7/plat-mac/lib-scriptpackages
  /System/Library/Frameworks/Python.framework/Versions/2.7/lib/python2.7/lib-tk
  /System/Library/Frameworks/Python.framework/Versions/2.7/lib/python2.7/lib-old
  /System/Library/Frameworks/Python.framework/Versions/2.7/lib/python2.7/lib-dynload
  /Users/bond/Library/Python/2.7/lib/python/site-packages
  /Library/Python/2.7/site-packages
  /System/Library/Frameworks/Python.framework/Versions/2.7/Extras/lib/python
  /System/Library/Frameworks/Python.framework/Versions/2.7/Extras/lib/python/PyObjC
  /Library/Python/2.7/site-packages/pip-20.0.2-py2.7.egg</msg>
<msg timestamp="20200612 17:41:27.841" level="ERROR">Error in file '/Users/bond/Documents/Paylo/common.robot': Importing test library 'JSONLibrary' failed: ImportError: No module named JSONLibrary
Traceback (most recent call last):
  None
PYTHONPATH:
  /System/Library/Frameworks/Python.framework/Versions/2.7/lib/python27.zip
  /System/Library/Frameworks/Python.framework/Versions/2.7/lib/python2.7
  /System/Library/Frameworks/Python.framework/Versions/2.7/lib/python2.7/plat-darwin
  /System/Library/Frameworks/Python.framework/Versions/2.7/lib/python2.7/plat-mac
  /System/Library/Frameworks/Python.framework/Versions/2.7/lib/python2.7/plat-mac/lib-scriptpackages
  /System/Library/Frameworks/Python.framework/Versions/2.7/lib/python2.7/lib-tk
  /System/Library/Frameworks/Python.framework/Versions/2.7/lib/python2.7/lib-old
  /System/Library/Frameworks/Python.framework/Versions/2.7/lib/python2.7/lib-dynload
  /Users/bond/Library/Python/2.7/lib/python/site-packages
  /Library/Python/2.7/site-packages
  /System/Library/Frameworks/Python.framework/Versions/2.7/Extras/lib/python
  /System/Library/Frameworks/Python.framework/Versions/2.7/Extras/lib/python/PyObjC
  /Library/Python/2.7/site-packages/pip-20.0.2-py2.7.egg</msg>
<msg timestamp="20200612 17:41:27.856" level="WARN">Error in file '/Users/bond/Documents/Paylo/Resources/Api/Keywords/Keyword_api_backoffice.robot': Invalid syntax in keyword 'Get merchant registered ID and approve': Using [Return] setting multiple times is deprecated.</msg>
<msg timestamp="20200612 17:41:27.858" level="WARN">Error in file '/Users/bond/Documents/Paylo/Resources/Api/Keywords/Keyword_api_backoffice.robot': Invalid syntax in keyword 'Get merchant registered ID and reject': Using [Return] setting multiple times is deprecated.</msg>
<msg timestamp="20200612 17:41:27.860" level="WARN">Error in file '/Users/bond/Documents/Paylo/Resources/Api/Keywords/Keyword_api_backoffice.robot': Invalid syntax in keyword 'Delete merchant by ID': Using [Return] setting multiple times is deprecated.</msg>
<msg timestamp="20200612 17:41:27.865" level="WARN">Error in file '/Users/bond/Documents/Paylo/Resources/Api/Keywords/Keyword_api_qrcode.robot': Invalid syntax in keyword 'Get QR code': Using [Return] setting multiple times is deprecated.</msg>
<msg timestamp="20200612 17:41:27.865" level="WARN">Error in file '/Users/bond/Documents/Paylo/Resources/Api/Keywords/Keyword_api_qrcode.robot': Invalid syntax in keyword 'Delete qr code': Using [Return] setting multiple times is deprecated.</msg>
<msg timestamp="20200612 17:41:27.867" level="ERROR">Error in file '/Users/bond/Documents/Paylo/common.robot': Resource file 'Resources/Api/Keywords/Keyword_api_merchant_forgetpassword.robot' does not exist.</msg>
<msg timestamp="20200612 17:41:27.869" level="WARN">Error in file '/Users/bond/Documents/Paylo/Resources/Api/Keywords/Keyword_api_balance.robot': Invalid syntax in keyword 'Check account balance': Using [Return] setting multiple times is deprecated.</msg>
<msg timestamp="20200612 17:41:27.872" level="WARN">Error in file '/Users/bond/Documents/Paylo/Resources/Api/Keywords/Keyword_api_set_cashback.robot': Invalid syntax in keyword 'Admin setting merchant cashback in percent': Using [Return] setting multiple times is deprecated.</msg>
</errors>
</robot>
